[
  {
    "id": 1,
    "title": "Taylor Swift",
    "artist": "Taylor Swift",
    "url": "https://www.amazon.com/Taylor-Swift/dp/B0014I4KH6",
    "image": "https://images-na.ssl-images-amazon.com/images/I/61McsadO1OL.jpg",
    "thumbnail_image": "https://i.imgur.com/K3KJ3w4h.jpg",
    "description": "Lorem ipsum dolor sit amet, consectetur adipiscing elit. Proin placerat nec ipsum a auctor. Suspendisse."
  },
  {
    "id": 2,
    "title": "Fearless",
    "artist": "Taylor Swift",
    "url": "https://www.amazon.com/Fearless-Enhanced-Taylor-Swift/dp/B001EYGOEM",
    "image": "https://images-na.ssl-images-amazon.com/images/I/51qmhXWZBxL.jpg",
    "thumbnail_image": "https://i.imgur.com/K3KJ3w4h.jpg",
    "description": "Lorem ipsum dolor sit amet, consectetur adipiscing elit. Curabitur vel nisl non risus aliquam malesuada."
  },
  {
    "id": 3,
    "title": "Speak Now",
    "artist": "Taylor Swift",
    "url": "https://www.amazon.com/Speak-Now-Taylor-Swift/dp/B003WTE886",
    "image": "https://images-na.ssl-images-amazon.com/images/I/51vlGuX7%2BFL.jpg",
    "thumbnail_image": "https://i.imgur.com/K3KJ3w4h.jpg",
    "description": "Lorem ipsum dolor sit amet, consectetur adipiscing elit. Donec dapibus varius metus nec feugiat. Nulla."
  },
  {
    "id": 4,
    "title": "Red",
    "artist": "Taylor Swift",
    "url": "https://www.amazon.com/Red-Taylor-Swift/dp/B008XNZMOU",
    "image": "https://images-na.ssl-images-amazon.com/images/I/41j7-7yboXL.jpg",
    "thumbnail_image": "https://i.imgur.com/K3KJ3w4h.jpg",
    "description": "Lorem ipsum dolor sit amet, consectetur adipiscing elit. Aenean non est sit amet nisl bibendum."
  },
  {
    "id": 5,
    "title": "1989",
    "artist": "Taylor Swift",
    "url": "https://www.amazon.com/1989-Taylor-Swift/dp/B00MRHANNI",
    "image": "https://images-na.ssl-images-amazon.com/images/I/717DWgRftmL._SX522_.jpg",
    "thumbnail_image": "https://i.imgur.com/K3KJ3w4h.jpg",
    "description": "Lorem ipsum dolor sit amet, consectetur adipiscing elit. Nullam quis tincidunt erat. Cras purus enim."
  },
  {
    "id": 6,
    "title": "Delicate",
    "artist": "Taylor Swift",
    "url": "https://www.amazon.com/1989-Taylor-Swift/dp/B00MRHANNI",
    "image": "https://images-na.ssl-images-amazon.com/images/I/717DWgRftmL._SX522_.jpg",
    "thumbnail_image": "https://i.imgur.com/K3KJ3w4h.jpg",
    "description": "Lorem ipsum dolor sit amet, consectetur adipiscing elit. Praesent euismod, eros vel sollicitudin pellentesque, urna."
  },
  {
    "id": 7,
    "title": "Look What You Made Me Do",
    "artist": "Taylor Swift",
    "url": "https://www.amazon.com/1989-Taylor-Swift/dp/B00MRHANNI",
    "image": "https://images-na.ssl-images-amazon.com/images/I/51vlGuX7%2BFL.jpg",
    "thumbnail_image": "https://i.imgur.com/K3KJ3w4h.jpg",
    "description": "Lorem ipsum dolor sit amet, consectetur adipiscing elit. Vivamus mattis posuere volutpat. Mauris tristique, dui."
  },
  {
    "id": 8,
    "title": "Ready For It?",
    "artist": "Taylor Swift",
    "url": "https://www.amazon.com/1989-Taylor-Swift/dp/B00MRHANNI",
    "image": "https://images-na.ssl-images-amazon.com/images/I/717DWgRftmL._SX522_.jpg",
    "thumbnail_image": "https://i.imgur.com/K3KJ3w4h.jpg",
    "description": "Lorem ipsum dolor sit amet, consectetur adipiscing elit. Aenean tincidunt et nulla vel venenatis. Donec."
  },
  {
    "id": 9,
    "title": "Blank Space",
    "artist": "Taylor Swift",
    "url": "https://www.amazon.com/1989-Taylor-Swift/dp/B00MRHANNI",
    "image": "https://images-na.ssl-images-amazon.com/images/I/717DWgRftmL._SX522_.jpg",
    "thumbnail_image": "https://i.imgur.com/K3KJ3w4h.jpg",
    "description": "Lorem ipsum dolor sit amet, consectetur adipiscing elit. Maecenas auctor lacinia hendrerit. Suspendisse congue velit."
  },
  {
    "id": 10,
    "title": "Shake It Off",
    "artist": "Taylor Swift",
    "url": "https://www.amazon.com/1989-Taylor-Swift/dp/B00MRHANNI",
    "image": "https://images-na.ssl-images-amazon.com/images/I/61McsadO1OL.jpg",
    "thumbnail_image": "https://i.imgur.com/K3KJ3w4h.jpg",
    "description": "Lorem ipsum dolor sit amet, consectetur adipiscing elit. Quisque scelerisque augue non mauris scelerisque euismod."
  }
]